Getting Started with rvcetools • rvcetools
…
Features

The most central feature is to read in raw outfiles from the different variance components estimation programs. In the most basic case there is only one output file from one analysis. In more advanced analyses, there might be output files from repeated analyses of different sample data sets.

Package Input

Currently the package can read VCE results from .csv files which are in a pre-defined format. For testing an example input file is included in the package available.

(s_input <- system.file("extdata","VCE_results.csv", package = "rvcetools"))
#> [1] "/private/var/folders/2v/jfsqj8zj2f122jcgy15nzfn00000gn/T/Rtmp1qi2Cd/temp_libpath3d3c6793c4b1/rvcetools/extdata/VCE_results.csv"

The input data can be read using the function

(tbl_vce <- read_vce(psInputFile = s_input))
#> # A tibble: 6,414 x 9
#>    type  traits random_effect estimate STD_ERR_estimate model_name
#>    <chr> <chr>  <chr>            <dbl> <chr>            <chr>     
#>  1 ratio caa    residual       0.261   0.019575         <NA>      
#>  2 cova… cac+c… residual       0       ---              <NA>      
#>  3 cova… cac+c… animal         0.0152  0.005221         <NA>      
#>  4 gene… cac+c… animal         0.252   0.085193         <NA>      
#>  5 vari… cac    herdyear       0.0128  0.000740         <NA>      
#>  6 cova… cac+c… herdyear       0.00092 0.001490         <NA>      
#>  7 heri… caa    animal         0.319   0.026249         <NA>      
#>  8 ratio caa    herdyear       0.420   0.015139         <NA>      
#>  9 vari… cac    residual       0.0271  0.001140         <NA>      
#> 10 heri… cac    animal         0.231   0.026163         <NA>      
#> # … with 6,404 more rows, and 3 more variables: data_subset_number <chr>,
#> #   used_seed <chr>, trait_combination <chr>
…
